#Command: "C:\Program Files (x86)\Microsoft Visual Studio\2017\Community\VC\Tools\MSVC\14.14.26428\bin\HostX86\x86\link.exe" /ERRORREPORT:PROMPT "@C:\Users\Maykol Burgos\AppData\Local\Temp\tmp3655acd7f70a49c1bf1cc9c22e726b0c.rsp"
^C:\USERS\MAYKOL BURGOS\DESKTOP\UNIVERSIDAD\UNA\2016\II CICLO\PROGRAMACIÓN I\PROYECTOS\PROYECTO I\PROYECTO1-MAYKOLBURGOS\PROYECTO1\DEBUG\ASIENTO.OBJ|C:\USERS\MAYKOL BURGOS\DESKTOP\UNIVERSIDAD\UNA\2016\II CICLO\PROGRAMACIÓN I\PROYECTOS\PROYECTO I\PROYECTO1-MAYKOLBURGOS\PROYECTO1\DEBUG\ASIENTOS.OBJ|C:\USERS\MAYKOL BURGOS\DESKTOP\UNIVERSIDAD\UNA\2016\II CICLO\PROGRAMACIÓN I\PROYECTOS\PROYECTO I\PROYECTO1-MAYKOLBURGOS\PROYECTO1\DEBUG\HORARIO.OBJ|C:\USERS\MAYKOL BURGOS\DESKTOP\UNIVERSIDAD\UNA\2016\II CICLO\PROGRAMACIÓN I\PROYECTOS\PROYECTO I\PROYECTO1-MAYKOLBURGOS\PROYECTO1\DEBUG\INTERFAZ.OBJ|C:\USERS\MAYKOL BURGOS\DESKTOP\UNIVERSIDAD\UNA\2016\II CICLO\PROGRAMACIÓN I\PROYECTOS\PROYECTO I\PROYECTO1-MAYKOLBURGOS\PROYECTO1\DEBUG\LISTAFUNCIONDIARIA.OBJ|C:\USERS\MAYKOL BURGOS\DESKTOP\UNIVERSIDAD\UNA\2016\II CICLO\PROGRAMACIÓN I\PROYECTOS\PROYECTO I\PROYECTO1-MAYKOLBURGOS\PROYECTO1\DEBUG\LISTAPELICULA.OBJ|C:\USERS\MAYKOL BURGOS\DESKTOP\UNIVERSIDAD\UNA\2016\II CICLO\PROGRAMACIÓN I\PROYECTOS\PROYECTO I\PROYECTO1-MAYKOLBURGOS\PROYECTO1\DEBUG\MAIN.OBJ|C:\USERS\MAYKOL BURGOS\DESKTOP\UNIVERSIDAD\UNA\2016\II CICLO\PROGRAMACIÓN I\PROYECTOS\PROYECTO I\PROYECTO1-MAYKOLBURGOS\PROYECTO1\DEBUG\NODOFUNCIONDIARIA.OBJ|C:\USERS\MAYKOL BURGOS\DESKTOP\UNIVERSIDAD\UNA\2016\II CICLO\PROGRAMACIÓN I\PROYECTOS\PROYECTO I\PROYECTO1-MAYKOLBURGOS\PROYECTO1\DEBUG\NODOPELICULA.OBJ|C:\USERS\MAYKOL BURGOS\DESKTOP\UNIVERSIDAD\UNA\2016\II CICLO\PROGRAMACIÓN I\PROYECTOS\PROYECTO I\PROYECTO1-MAYKOLBURGOS\PROYECTO1\DEBUG\ORDENCOMPRA.OBJ|C:\USERS\MAYKOL BURGOS\DESKTOP\UNIVERSIDAD\UNA\2016\II CICLO\PROGRAMACIÓN I\PROYECTOS\PROYECTO I\PROYECTO1-MAYKOLBURGOS\PROYECTO1\DEBUG\PELICULA.OBJ|C:\USERS\MAYKOL BURGOS\DESKTOP\UNIVERSIDAD\UNA\2016\II CICLO\PROGRAMACIÓN I\PROYECTOS\PROYECTO I\PROYECTO1-MAYKOLBURGOS\PROYECTO1\DEBUG\SALA.OBJ
C:\USERS\MAYKOL BURGOS\DESKTOP\UNIVERSIDAD\UNA\2016\II CICLO\PROGRAMACIóN I\PROYECTOS\PROYECTO I\PROYECTO1-MAYKOLBURGOS\DEBUG\PROYECTO1.PDB
