^C:\USERS\MAYKOL BURGOS\DOCUMENTS\VISUAL STUDIO 2012\PROJECTS\PROYECTO1\PROYECTO1\ASIENTO.CPP
/c /ZI /nologo /W3 /WX- /sdl /Od /Oy- /D _MBCS /Gm /EHsc /RTC1 /MDd /GS /fp:precise /Zc:wchar_t /Zc:forScope /Fo"DEBUG\\" /Fd"DEBUG\VC110.PDB" /Gd /TP /analyze- C:\USERS\MAYKOL BURGOS\DOCUMENTS\VISUAL STUDIO 2012\PROJECTS\PROYECTO1\PROYECTO1\ASIENTO.CPP
^C:\USERS\MAYKOL BURGOS\DOCUMENTS\VISUAL STUDIO 2012\PROJECTS\PROYECTO1\PROYECTO1\ASIENTOS.CPP
/c /ZI /nologo /W3 /WX- /sdl /Od /Oy- /D _MBCS /Gm /EHsc /RTC1 /MDd /GS /fp:precise /Zc:wchar_t /Zc:forScope /Fo"DEBUG\\" /Fd"DEBUG\VC110.PDB" /Gd /TP /analyze- C:\USERS\MAYKOL BURGOS\DOCUMENTS\VISUAL STUDIO 2012\PROJECTS\PROYECTO1\PROYECTO1\ASIENTOS.CPP
^C:\USERS\MAYKOL BURGOS\DOCUMENTS\VISUAL STUDIO 2012\PROJECTS\PROYECTO1\PROYECTO1\HORARIO.CPP
/c /ZI /nologo /W3 /WX- /sdl /Od /Oy- /D _MBCS /Gm /EHsc /RTC1 /MDd /GS /fp:precise /Zc:wchar_t /Zc:forScope /Fo"DEBUG\\" /Fd"DEBUG\VC110.PDB" /Gd /TP /analyze- C:\USERS\MAYKOL BURGOS\DOCUMENTS\VISUAL STUDIO 2012\PROJECTS\PROYECTO1\PROYECTO1\HORARIO.CPP
^C:\USERS\MAYKOL BURGOS\DOCUMENTS\VISUAL STUDIO 2012\PROJECTS\PROYECTO1\PROYECTO1\INTERFAZ.CPP
/c /ZI /nologo /W3 /WX- /sdl /Od /Oy- /D _MBCS /Gm /EHsc /RTC1 /MDd /GS /fp:precise /Zc:wchar_t /Zc:forScope /Fo"DEBUG\\" /Fd"DEBUG\VC110.PDB" /Gd /TP /analyze- C:\USERS\MAYKOL BURGOS\DOCUMENTS\VISUAL STUDIO 2012\PROJECTS\PROYECTO1\PROYECTO1\INTERFAZ.CPP
^C:\USERS\MAYKOL BURGOS\DOCUMENTS\VISUAL STUDIO 2012\PROJECTS\PROYECTO1\PROYECTO1\LISTAFUNCIONDIARIA.CPP
/c /ZI /nologo /W3 /WX- /sdl /Od /Oy- /D _MBCS /Gm /EHsc /RTC1 /MDd /GS /fp:precise /Zc:wchar_t /Zc:forScope /Fo"DEBUG\\" /Fd"DEBUG\VC110.PDB" /Gd /TP /analyze- C:\USERS\MAYKOL BURGOS\DOCUMENTS\VISUAL STUDIO 2012\PROJECTS\PROYECTO1\PROYECTO1\LISTAFUNCIONDIARIA.CPP
^C:\USERS\MAYKOL BURGOS\DOCUMENTS\VISUAL STUDIO 2012\PROJECTS\PROYECTO1\PROYECTO1\NODOFUNCIONDIARIA.CPP
/c /ZI /nologo /W3 /WX- /sdl /Od /Oy- /D _MBCS /Gm /EHsc /RTC1 /MDd /GS /fp:precise /Zc:wchar_t /Zc:forScope /Fo"DEBUG\\" /Fd"DEBUG\VC110.PDB" /Gd /TP /analyze- C:\USERS\MAYKOL BURGOS\DOCUMENTS\VISUAL STUDIO 2012\PROJECTS\PROYECTO1\PROYECTO1\NODOFUNCIONDIARIA.CPP
^C:\USERS\MAYKOL BURGOS\DOCUMENTS\VISUAL STUDIO 2012\PROJECTS\PROYECTO1\PROYECTO1\ORDENCOMPRA.CPP
/c /ZI /nologo /W3 /WX- /sdl /Od /Oy- /D _MBCS /Gm /EHsc /RTC1 /MDd /GS /fp:precise /Zc:wchar_t /Zc:forScope /Fo"DEBUG\\" /Fd"DEBUG\VC110.PDB" /Gd /TP /analyze- C:\USERS\MAYKOL BURGOS\DOCUMENTS\VISUAL STUDIO 2012\PROJECTS\PROYECTO1\PROYECTO1\ORDENCOMPRA.CPP
^C:\USERS\MAYKOL BURGOS\DOCUMENTS\VISUAL STUDIO 2012\PROJECTS\PROYECTO1\PROYECTO1\PELICULA.CPP
/c /ZI /nologo /W3 /WX- /sdl /Od /Oy- /D _MBCS /Gm /EHsc /RTC1 /MDd /GS /fp:precise /Zc:wchar_t /Zc:forScope /Fo"DEBUG\\" /Fd"DEBUG\VC110.PDB" /Gd /TP /analyze- C:\USERS\MAYKOL BURGOS\DOCUMENTS\VISUAL STUDIO 2012\PROJECTS\PROYECTO1\PROYECTO1\PELICULA.CPP
^C:\USERS\MAYKOL BURGOS\DOCUMENTS\VISUAL STUDIO 2012\PROJECTS\PROYECTO1\PROYECTO1\LISTAPELICULA.CPP
/c /ZI /nologo /W3 /WX- /sdl /Od /Oy- /D _MBCS /Gm /EHsc /RTC1 /MDd /GS /fp:precise /Zc:wchar_t /Zc:forScope /Fo"DEBUG\\" /Fd"DEBUG\VC110.PDB" /Gd /TP /analyze- C:\USERS\MAYKOL BURGOS\DOCUMENTS\VISUAL STUDIO 2012\PROJECTS\PROYECTO1\PROYECTO1\LISTAPELICULA.CPP
^C:\USERS\MAYKOL BURGOS\DOCUMENTS\VISUAL STUDIO 2012\PROJECTS\PROYECTO1\PROYECTO1\MAIN.CPP
/c /ZI /nologo /W3 /WX- /sdl /Od /Oy- /D _MBCS /Gm /EHsc /RTC1 /MDd /GS /fp:precise /Zc:wchar_t /Zc:forScope /Fo"DEBUG\\" /Fd"DEBUG\VC110.PDB" /Gd /TP /analyze- C:\USERS\MAYKOL BURGOS\DOCUMENTS\VISUAL STUDIO 2012\PROJECTS\PROYECTO1\PROYECTO1\MAIN.CPP
^C:\USERS\MAYKOL BURGOS\DOCUMENTS\VISUAL STUDIO 2012\PROJECTS\PROYECTO1\PROYECTO1\NODOPELICULA.CPP
/c /ZI /nologo /W3 /WX- /sdl /Od /Oy- /D _MBCS /Gm /EHsc /RTC1 /MDd /GS /fp:precise /Zc:wchar_t /Zc:forScope /Fo"DEBUG\\" /Fd"DEBUG\VC110.PDB" /Gd /TP /analyze- C:\USERS\MAYKOL BURGOS\DOCUMENTS\VISUAL STUDIO 2012\PROJECTS\PROYECTO1\PROYECTO1\NODOPELICULA.CPP
^C:\USERS\MAYKOL BURGOS\DOCUMENTS\VISUAL STUDIO 2012\PROJECTS\PROYECTO1\PROYECTO1\SALA.CPP
/c /ZI /nologo /W3 /WX- /sdl /Od /Oy- /D _MBCS /Gm /EHsc /RTC1 /MDd /GS /fp:precise /Zc:wchar_t /Zc:forScope /Fo"DEBUG\\" /Fd"DEBUG\VC110.PDB" /Gd /TP /analyze- C:\USERS\MAYKOL BURGOS\DOCUMENTS\VISUAL STUDIO 2012\PROJECTS\PROYECTO1\PROYECTO1\SALA.CPP
^C:\USERS\MAYKOL BURGOS\DESKTOP\PROYECTO1\PROYECTO1\ASIENTO.CPP
/c /ZI /nologo /W3 /WX- /sdl /Od /Oy- /D _MBCS /Gm /EHsc /RTC1 /MDd /GS /fp:precise /Zc:wchar_t /Zc:forScope /Fo"DEBUG\\" /Fd"DEBUG\VC110.PDB" /Gd /TP /analyze- C:\USERS\MAYKOL BURGOS\DESKTOP\PROYECTO1\PROYECTO1\ASIENTO.CPP
^C:\USERS\MAYKOL BURGOS\DESKTOP\PROYECTO1\PROYECTO1\ASIENTOS.CPP
/c /ZI /nologo /W3 /WX- /sdl /Od /Oy- /D _MBCS /Gm /EHsc /RTC1 /MDd /GS /fp:precise /Zc:wchar_t /Zc:forScope /Fo"DEBUG\\" /Fd"DEBUG\VC110.PDB" /Gd /TP /analyze- C:\USERS\MAYKOL BURGOS\DESKTOP\PROYECTO1\PROYECTO1\ASIENTOS.CPP
^C:\USERS\MAYKOL BURGOS\DESKTOP\PROYECTO1\PROYECTO1\HORARIO.CPP
/c /ZI /nologo /W3 /WX- /sdl /Od /Oy- /D _MBCS /Gm /EHsc /RTC1 /MDd /GS /fp:precise /Zc:wchar_t /Zc:forScope /Fo"DEBUG\\" /Fd"DEBUG\VC110.PDB" /Gd /TP /analyze- C:\USERS\MAYKOL BURGOS\DESKTOP\PROYECTO1\PROYECTO1\HORARIO.CPP
^C:\USERS\MAYKOL BURGOS\DESKTOP\PROYECTO1\PROYECTO1\INTERFAZ.CPP
/c /ZI /nologo /W3 /WX- /sdl /Od /Oy- /D _MBCS /Gm /EHsc /RTC1 /MDd /GS /fp:precise /Zc:wchar_t /Zc:forScope /Fo"DEBUG\\" /Fd"DEBUG\VC110.PDB" /Gd /TP /analyze- C:\USERS\MAYKOL BURGOS\DESKTOP\PROYECTO1\PROYECTO1\INTERFAZ.CPP
^C:\USERS\MAYKOL BURGOS\DESKTOP\PROYECTO1\PROYECTO1\LISTAFUNCIONDIARIA.CPP
/c /ZI /nologo /W3 /WX- /sdl /Od /Oy- /D _MBCS /Gm /EHsc /RTC1 /MDd /GS /fp:precise /Zc:wchar_t /Zc:forScope /Fo"DEBUG\\" /Fd"DEBUG\VC110.PDB" /Gd /TP /analyze- C:\USERS\MAYKOL BURGOS\DESKTOP\PROYECTO1\PROYECTO1\LISTAFUNCIONDIARIA.CPP
^C:\USERS\MAYKOL BURGOS\DESKTOP\PROYECTO1\PROYECTO1\NODOFUNCIONDIARIA.CPP
/c /ZI /nologo /W3 /WX- /sdl /Od /Oy- /D _MBCS /Gm /EHsc /RTC1 /MDd /GS /fp:precise /Zc:wchar_t /Zc:forScope /Fo"DEBUG\\" /Fd"DEBUG\VC110.PDB" /Gd /TP /analyze- C:\USERS\MAYKOL BURGOS\DESKTOP\PROYECTO1\PROYECTO1\NODOFUNCIONDIARIA.CPP
^C:\USERS\MAYKOL BURGOS\DESKTOP\PROYECTO1\PROYECTO1\ORDENCOMPRA.CPP
/c /ZI /nologo /W3 /WX- /sdl /Od /Oy- /D _MBCS /Gm /EHsc /RTC1 /MDd /GS /fp:precise /Zc:wchar_t /Zc:forScope /Fo"DEBUG\\" /Fd"DEBUG\VC110.PDB" /Gd /TP /analyze- C:\USERS\MAYKOL BURGOS\DESKTOP\PROYECTO1\PROYECTO1\ORDENCOMPRA.CPP
^C:\USERS\MAYKOL BURGOS\DESKTOP\PROYECTO1\PROYECTO1\PELICULA.CPP
/c /ZI /nologo /W3 /WX- /sdl /Od /Oy- /D _MBCS /Gm /EHsc /RTC1 /MDd /GS /fp:precise /Zc:wchar_t /Zc:forScope /Fo"DEBUG\\" /Fd"DEBUG\VC110.PDB" /Gd /TP /analyze- C:\USERS\MAYKOL BURGOS\DESKTOP\PROYECTO1\PROYECTO1\PELICULA.CPP
^C:\USERS\MAYKOL BURGOS\DESKTOP\PROYECTO1\PROYECTO1\LISTAPELICULA.CPP
/c /ZI /nologo /W3 /WX- /sdl /Od /Oy- /D _MBCS /Gm /EHsc /RTC1 /MDd /GS /fp:precise /Zc:wchar_t /Zc:forScope /Fo"DEBUG\\" /Fd"DEBUG\VC110.PDB" /Gd /TP /analyze- C:\USERS\MAYKOL BURGOS\DESKTOP\PROYECTO1\PROYECTO1\LISTAPELICULA.CPP
^C:\USERS\MAYKOL BURGOS\DESKTOP\PROYECTO1\PROYECTO1\MAIN.CPP
/c /ZI /nologo /W3 /WX- /sdl /Od /Oy- /D _MBCS /Gm /EHsc /RTC1 /MDd /GS /fp:precise /Zc:wchar_t /Zc:forScope /Fo"DEBUG\\" /Fd"DEBUG\VC110.PDB" /Gd /TP /analyze- C:\USERS\MAYKOL BURGOS\DESKTOP\PROYECTO1\PROYECTO1\MAIN.CPP
^C:\USERS\MAYKOL BURGOS\DESKTOP\PROYECTO1\PROYECTO1\NODOPELICULA.CPP
/c /ZI /nologo /W3 /WX- /sdl /Od /Oy- /D _MBCS /Gm /EHsc /RTC1 /MDd /GS /fp:precise /Zc:wchar_t /Zc:forScope /Fo"DEBUG\\" /Fd"DEBUG\VC110.PDB" /Gd /TP /analyze- C:\USERS\MAYKOL BURGOS\DESKTOP\PROYECTO1\PROYECTO1\NODOPELICULA.CPP
^C:\USERS\MAYKOL BURGOS\DESKTOP\PROYECTO1\PROYECTO1\SALA.CPP
/c /ZI /nologo /W3 /WX- /sdl /Od /Oy- /D _MBCS /Gm /EHsc /RTC1 /MDd /GS /fp:precise /Zc:wchar_t /Zc:forScope /Fo"DEBUG\\" /Fd"DEBUG\VC110.PDB" /Gd /TP /analyze- C:\USERS\MAYKOL BURGOS\DESKTOP\PROYECTO1\PROYECTO1\SALA.CPP
^C:\USERS\MAYKOL BURGOS\DESKTOP\UNIVERSIDAD\UNA\2016\II CICLO\PROGRAMACIÓN I\PROYECTOS\PROYECTO I\PROYECTO1-MAYKOLBURGOS\PROYECTO1\ASIENTO.CPP
/c /ZI /nologo /W3 /WX- /sdl /Od /Oy- /D _MBCS /Gm /EHsc /RTC1 /MDd /GS /fp:precise /Zc:wchar_t /Zc:forScope /Fo"DEBUG\\" /Fd"DEBUG\VC110.PDB" /Gd /TP /analyze- C:\USERS\MAYKOL BURGOS\DESKTOP\UNIVERSIDAD\UNA\2016\II CICLO\PROGRAMACIÓN I\PROYECTOS\PROYECTO I\PROYECTO1-MAYKOLBURGOS\PROYECTO1\ASIENTO.CPP
^C:\USERS\MAYKOL BURGOS\DESKTOP\UNIVERSIDAD\UNA\2016\II CICLO\PROGRAMACIÓN I\PROYECTOS\PROYECTO I\PROYECTO1-MAYKOLBURGOS\PROYECTO1\ASIENTOS.CPP
/c /ZI /nologo /W3 /WX- /sdl /Od /Oy- /D _MBCS /Gm /EHsc /RTC1 /MDd /GS /fp:precise /Zc:wchar_t /Zc:forScope /Fo"DEBUG\\" /Fd"DEBUG\VC110.PDB" /Gd /TP /analyze- C:\USERS\MAYKOL BURGOS\DESKTOP\UNIVERSIDAD\UNA\2016\II CICLO\PROGRAMACIÓN I\PROYECTOS\PROYECTO I\PROYECTO1-MAYKOLBURGOS\PROYECTO1\ASIENTOS.CPP
^C:\USERS\MAYKOL BURGOS\DESKTOP\UNIVERSIDAD\UNA\2016\II CICLO\PROGRAMACIÓN I\PROYECTOS\PROYECTO I\PROYECTO1-MAYKOLBURGOS\PROYECTO1\HORARIO.CPP
/c /ZI /nologo /W3 /WX- /sdl /Od /Oy- /D _MBCS /Gm /EHsc /RTC1 /MDd /GS /fp:precise /Zc:wchar_t /Zc:forScope /Fo"DEBUG\\" /Fd"DEBUG\VC110.PDB" /Gd /TP /analyze- C:\USERS\MAYKOL BURGOS\DESKTOP\UNIVERSIDAD\UNA\2016\II CICLO\PROGRAMACIÓN I\PROYECTOS\PROYECTO I\PROYECTO1-MAYKOLBURGOS\PROYECTO1\HORARIO.CPP
^C:\USERS\MAYKOL BURGOS\DESKTOP\UNIVERSIDAD\UNA\2016\II CICLO\PROGRAMACIÓN I\PROYECTOS\PROYECTO I\PROYECTO1-MAYKOLBURGOS\PROYECTO1\INTERFAZ.CPP
/c /ZI /nologo /W3 /WX- /sdl /Od /Oy- /D _MBCS /Gm /EHsc /RTC1 /MDd /GS /fp:precise /Zc:wchar_t /Zc:forScope /Fo"DEBUG\\" /Fd"DEBUG\VC110.PDB" /Gd /TP /analyze- C:\USERS\MAYKOL BURGOS\DESKTOP\UNIVERSIDAD\UNA\2016\II CICLO\PROGRAMACIÓN I\PROYECTOS\PROYECTO I\PROYECTO1-MAYKOLBURGOS\PROYECTO1\INTERFAZ.CPP
^C:\USERS\MAYKOL BURGOS\DESKTOP\UNIVERSIDAD\UNA\2016\II CICLO\PROGRAMACIÓN I\PROYECTOS\PROYECTO I\PROYECTO1-MAYKOLBURGOS\PROYECTO1\LISTAFUNCIONDIARIA.CPP
/c /ZI /nologo /W3 /WX- /sdl /Od /Oy- /D _MBCS /Gm /EHsc /RTC1 /MDd /GS /fp:precise /Zc:wchar_t /Zc:forScope /Fo"DEBUG\\" /Fd"DEBUG\VC110.PDB" /Gd /TP /analyze- C:\USERS\MAYKOL BURGOS\DESKTOP\UNIVERSIDAD\UNA\2016\II CICLO\PROGRAMACIÓN I\PROYECTOS\PROYECTO I\PROYECTO1-MAYKOLBURGOS\PROYECTO1\LISTAFUNCIONDIARIA.CPP
^C:\USERS\MAYKOL BURGOS\DESKTOP\UNIVERSIDAD\UNA\2016\II CICLO\PROGRAMACIÓN I\PROYECTOS\PROYECTO I\PROYECTO1-MAYKOLBURGOS\PROYECTO1\NODOFUNCIONDIARIA.CPP
/c /ZI /nologo /W3 /WX- /sdl /Od /Oy- /D _MBCS /Gm /EHsc /RTC1 /MDd /GS /fp:precise /Zc:wchar_t /Zc:forScope /Fo"DEBUG\\" /Fd"DEBUG\VC110.PDB" /Gd /TP /analyze- C:\USERS\MAYKOL BURGOS\DESKTOP\UNIVERSIDAD\UNA\2016\II CICLO\PROGRAMACIÓN I\PROYECTOS\PROYECTO I\PROYECTO1-MAYKOLBURGOS\PROYECTO1\NODOFUNCIONDIARIA.CPP
^C:\USERS\MAYKOL BURGOS\DESKTOP\UNIVERSIDAD\UNA\2016\II CICLO\PROGRAMACIÓN I\PROYECTOS\PROYECTO I\PROYECTO1-MAYKOLBURGOS\PROYECTO1\ORDENCOMPRA.CPP
/c /ZI /nologo /W3 /WX- /sdl /Od /Oy- /D _MBCS /Gm /EHsc /RTC1 /MDd /GS /fp:precise /Zc:wchar_t /Zc:forScope /Fo"DEBUG\\" /Fd"DEBUG\VC110.PDB" /Gd /TP /analyze- C:\USERS\MAYKOL BURGOS\DESKTOP\UNIVERSIDAD\UNA\2016\II CICLO\PROGRAMACIÓN I\PROYECTOS\PROYECTO I\PROYECTO1-MAYKOLBURGOS\PROYECTO1\ORDENCOMPRA.CPP
^C:\USERS\MAYKOL BURGOS\DESKTOP\UNIVERSIDAD\UNA\2016\II CICLO\PROGRAMACIÓN I\PROYECTOS\PROYECTO I\PROYECTO1-MAYKOLBURGOS\PROYECTO1\PELICULA.CPP
/c /ZI /nologo /W3 /WX- /sdl /Od /Oy- /D _MBCS /Gm /EHsc /RTC1 /MDd /GS /fp:precise /Zc:wchar_t /Zc:forScope /Fo"DEBUG\\" /Fd"DEBUG\VC110.PDB" /Gd /TP /analyze- C:\USERS\MAYKOL BURGOS\DESKTOP\UNIVERSIDAD\UNA\2016\II CICLO\PROGRAMACIÓN I\PROYECTOS\PROYECTO I\PROYECTO1-MAYKOLBURGOS\PROYECTO1\PELICULA.CPP
^C:\USERS\MAYKOL BURGOS\DESKTOP\UNIVERSIDAD\UNA\2016\II CICLO\PROGRAMACIÓN I\PROYECTOS\PROYECTO I\PROYECTO1-MAYKOLBURGOS\PROYECTO1\LISTAPELICULA.CPP
/c /ZI /nologo /W3 /WX- /sdl /Od /Oy- /D _MBCS /Gm /EHsc /RTC1 /MDd /GS /fp:precise /Zc:wchar_t /Zc:forScope /Fo"DEBUG\\" /Fd"DEBUG\VC110.PDB" /Gd /TP /analyze- C:\USERS\MAYKOL BURGOS\DESKTOP\UNIVERSIDAD\UNA\2016\II CICLO\PROGRAMACIÓN I\PROYECTOS\PROYECTO I\PROYECTO1-MAYKOLBURGOS\PROYECTO1\LISTAPELICULA.CPP
^C:\USERS\MAYKOL BURGOS\DESKTOP\UNIVERSIDAD\UNA\2016\II CICLO\PROGRAMACIÓN I\PROYECTOS\PROYECTO I\PROYECTO1-MAYKOLBURGOS\PROYECTO1\MAIN.CPP
/c /ZI /nologo /W3 /WX- /sdl /Od /Oy- /D _MBCS /Gm /EHsc /RTC1 /MDd /GS /fp:precise /Zc:wchar_t /Zc:forScope /Fo"DEBUG\\" /Fd"DEBUG\VC110.PDB" /Gd /TP /analyze- C:\USERS\MAYKOL BURGOS\DESKTOP\UNIVERSIDAD\UNA\2016\II CICLO\PROGRAMACIÓN I\PROYECTOS\PROYECTO I\PROYECTO1-MAYKOLBURGOS\PROYECTO1\MAIN.CPP
^C:\USERS\MAYKOL BURGOS\DESKTOP\UNIVERSIDAD\UNA\2016\II CICLO\PROGRAMACIÓN I\PROYECTOS\PROYECTO I\PROYECTO1-MAYKOLBURGOS\PROYECTO1\NODOPELICULA.CPP
/c /ZI /nologo /W3 /WX- /sdl /Od /Oy- /D _MBCS /Gm /EHsc /RTC1 /MDd /GS /fp:precise /Zc:wchar_t /Zc:forScope /Fo"DEBUG\\" /Fd"DEBUG\VC110.PDB" /Gd /TP /analyze- C:\USERS\MAYKOL BURGOS\DESKTOP\UNIVERSIDAD\UNA\2016\II CICLO\PROGRAMACIÓN I\PROYECTOS\PROYECTO I\PROYECTO1-MAYKOLBURGOS\PROYECTO1\NODOPELICULA.CPP
^C:\USERS\MAYKOL BURGOS\DESKTOP\UNIVERSIDAD\UNA\2016\II CICLO\PROGRAMACIÓN I\PROYECTOS\PROYECTO I\PROYECTO1-MAYKOLBURGOS\PROYECTO1\SALA.CPP
/c /ZI /nologo /W3 /WX- /sdl /Od /Oy- /D _MBCS /Gm /EHsc /RTC1 /MDd /GS /fp:precise /Zc:wchar_t /Zc:forScope /Fo"DEBUG\\" /Fd"DEBUG\VC110.PDB" /Gd /TP /analyze- C:\USERS\MAYKOL BURGOS\DESKTOP\UNIVERSIDAD\UNA\2016\II CICLO\PROGRAMACIÓN I\PROYECTOS\PROYECTO I\PROYECTO1-MAYKOLBURGOS\PROYECTO1\SALA.CPP
